A1-ST_ADCP_2016-01_2016-07_493m, A1ab, -126.204330, 48.529583, 571, 269, 0.261517, 599.350100,
A1_ADCP_2016-07_2017-05_480m, A1b, -126.195236, 48.538467, 572, 270, 0.374109, 410.630600,
BP1-ST_ADCP_2015-07_2016-XX_94m, BP1aa, -127.891449, 50.059319, 501, 372, 1.400383, 95.340000,
BP1-ST_ADCP_2016-XX_2016-07_94m, BP1ab, -127.891449, 50.059319, 501, 372, 1.400383, 95.340000,
BP1_ADCP_2016-07_2017-07_99m, BP1b, -127.891014, 50.059101, 501, 372, 1.453540, 95.340000,
CAM2_ADCP_2015-07_2016-07_227m, CAM2b, -129.258453, 52.916534, 429, 580, 0.774051, 240.187350,
CMP1_ADCP_2015-07_2016-05_355m, CMP1b, -129.258362, 53.007149, 428, 587, 1.246860, 359.596650,
DEV1_ADCP_2015-07_2016-04_102m, DEV1a, -128.854095, 53.577232, 438, 636, 0.798297, 154.640000,
DEV1_ADCP_2015-07_2016-05_112m, DEV1b, -128.854095, 53.577232, 438, 636, 0.798297, 154.640000,
E01_ADCP_2015-08_2016-07_91m, EO1a, -126.603966, 49.288834, 553, 322, 0.767841, 98.000000,
E01_ADCP_2016-07_2017-07_91m, EO1b, -126.603531, 49.288616, 553, 322, 0.800900, 98.000000,
HAK1_ADCP_2016-07_2017-07_42m, HAK1a, -128.235916, 51.711948, 477, 493, 0.628539, 130.135000,
HAK1_ADCP_2016-07_2017-07_137m, HAK1b, -128.235916, 51.711948, 477, 493, 0.628539, 130.135000,
HEC1_ADCP_2015-07_2016-07_39m, HEC1a, -129.845657, 52.820766, 408, 569, 1.042807, 137.765850,
HEC1_ADCP_2015-07_2016-07_125m, HEC1b, -129.845657, 52.820766, 408, 569, 1.042807, 137.765850,
KSK1_ADCP_2015-07_2016-05_41m, KSK1a, -129.208801, 53.480400, 426, 625, 1.406898, 364.123350,
KSK1_ADCP_2015-07_2016-05_359m, KSK1b, -129.208801, 53.480400, 426, 625, 1.406898, 364.123350,
SCOTT1_ADCP_2016-07_2017-07_41m, SCO1a, -128.802032, 50.794167, 463, 421, 0.510448, 90.665000,
SCOTT1_ADCP_2016-07_2017-07_102m, SCO1b, -128.802032, 50.794167, 463, 421, 0.510448, 90.665000,
SCOTT2_ADCP_2016-07_2017-07_40m, SCO2a, -129.474533, 51.127068, 436, 442, 0.102871, 288.950000,
SCOTT2_ADCP_2016-07_2017-07_275m, SCO2b, -129.474533, 51.127068, 436, 442, 0.102871, 288.950000,
SOGN2_ADCP_2015-10_2016-07_33m, SOGN1aa, -124.869217, 49.836834, 615, 369, 0.933852, 329.695000,
SOGN2_ADCP_2015-10_2016-07_314m, SOGN1ab, -124.869217, 49.836834, 615, 369, 0.933852, 329.695000,
SOGN2_ADCP_2016-07_2017-04_39m, SOGN1b, -124.868881, 49.835300, 615, 369, 0.888960, 329.695000,
SOGN2_ADCP_2016-07_2017-07_320m, SOGN1c, -124.868881, 49.835300, 615, 369, 0.888960, 329.695000,
SOGNC_ADCP_2015-10_2016-06_174m, SOGNC, -124.901917, 49.817150, 614, 367, 1.361586, 186.735000,
SRC1_ADCP_2016-07_2017-07_203m, SRC1b, -129.678696, 52.253601, 420, 526, 0.480102, 215.000300,
