01_CastCTD_2016-04-28_1636h.nc
02_CastCTD_2016-04-28_1712h.nc
03_CastCTD_2016-04-28_1826h.nc
04_CastCTD_2016-04-28_2023h.nc
05_CastCTD_2016-04-28_2049h.nc
06_CastCTD_2016-04-28_2144h.nc
07_CastCTD_2016-04-28_2215h.nc
08_CastCTD_2016-04-28_2235h.nc
09_CastCTD_2016-04-28_2349h.nc
101_CastCTD_2016-04-22_1342h.nc
101_CastCTD_2016-06-16_1335h.nc
101_CastCTD_2016-09-26_1517h.nc
